2021-07-08 18:47:51,978 - browser_engine - INFO - You had select Chrome browser.
2021-07-08 18:47:51,978 - browser_engine - INFO - The test server url is: http://mro.shop.d/
2021-07-08 18:47:54,112 - browser_engine - INFO - 打开浏览器为Chrome
2021-07-08 18:47:57,420 - browser_engine - INFO - 打开链接: http://mro.shop.d/
2021-07-08 18:47:58,534 - browser_engine - INFO - 浏览器全屏显示
2021-07-08 18:48:01,537 - BasePage - INFO - 等待 3 秒
2021-07-08 18:48:01,565 - BasePage - INFO - 元素定位成功，定位方式为：s,使用的值为.login:nth-child(2):
2021-07-08 18:48:01,995 - BasePage - INFO - 点击元素成功
2021-07-08 18:48:02,007 - BasePage - INFO - 元素定位成功，定位方式为：i,使用的值为user_name:
2021-07-08 18:48:02,113 - BasePage - INFO - 在输入框内输入 ' 17863962858 ' 
2021-07-08 18:48:02,123 - BasePage - INFO - 元素定位成功，定位方式为：i,使用的值为password:
2021-07-08 18:48:02,198 - BasePage - INFO - 在输入框内输入 ' qqqqqq1 ' 
2021-07-08 18:48:02,208 - BasePage - INFO - 元素定位成功，定位方式为：s,使用的值为.login-button:
2021-07-08 18:48:02,260 - BasePage - INFO - 点击元素成功
2021-07-08 18:48:05,138 - BasePage - INFO - 元素定位成功，定位方式为：s,使用的值为.header_left > a:nth-child(2):
2021-07-08 18:48:08,177 - BasePage - INFO - 获取元素的值成功 17863962858
2021-07-08 18:48:14,327 - browser_engine - INFO - You had select Chrome browser.
2021-07-08 18:48:14,327 - browser_engine - INFO - The test server url is: http://mro.shop.d/
2021-07-08 18:48:16,441 - browser_engine - INFO - 打开浏览器为Chrome
2021-07-08 18:48:20,790 - browser_engine - INFO - 打开链接: http://mro.shop.d/
2021-07-08 18:48:21,922 - browser_engine - INFO - 浏览器全屏显示
2021-07-08 18:48:27,056 - BasePage - INFO - 元素定位成功，定位方式为：s,使用的值为.banner_list > .banner_title:
2021-07-08 18:48:27,149 - BasePage - INFO - 点击元素成功
2021-07-08 18:48:28,156 - BasePage - INFO - 等待 1 秒
2021-07-08 18:48:29,186 - BasePage - INFO - 元素定位成功，定位方式为：s,使用的值为.a-center:nth-child(2) > a:nth-child(2):
2021-07-08 18:48:29,353 - BasePage - INFO - 点击元素成功
2021-07-08 18:48:31,355 - BasePage - INFO - 等待 2 秒
2021-07-08 18:48:33,377 - BasePage - INFO - 等待 2 秒
2021-07-08 18:48:34,405 - BasePage - INFO - 元素定位成功，定位方式为：x,使用的值为//span[3]/span:
2021-07-08 18:48:34,451 - BasePage - INFO - 点击元素成功
2021-07-08 18:48:36,452 - BasePage - INFO - 等待 2 秒
2021-07-08 18:48:36,476 - BasePage - INFO - 元素定位成功，定位方式为：x,使用的值为//li[5]/span/div/span[3]:
2021-07-08 18:48:36,542 - BasePage - INFO - 点击元素成功
2021-07-08 18:48:38,542 - BasePage - INFO - 等待 2 秒
2021-07-08 18:48:38,565 - BasePage - INFO - 元素定位成功，定位方式为：s,使用的值为.el-button--success:
2021-07-08 18:48:40,636 - BasePage - INFO - 点击元素成功
2021-07-08 18:48:42,932 - BasePage - INFO - 元素定位成功，定位方式为：i,使用的值为collectGood_21549:
2021-07-08 18:48:43,103 - BasePage - INFO - 点击元素成功
2021-07-08 18:48:43,110 - BasePage - INFO - 元素定位成功，定位方式为：i,使用的值为collectGood_21549:
2021-07-08 18:48:46,131 - BasePage - INFO - 获取元素的值成功 关注商品
2021-07-08 18:48:46,141 - BasePage - INFO - 元素定位成功，定位方式为：s,使用的值为.gid_24523:
2021-07-08 18:48:46,175 - BasePage - INFO - 点击元素成功
2021-07-08 18:48:49,176 - BasePage - INFO - 等待 3 秒
2021-07-08 18:48:51,228 - BasePage - INFO - 元素定位成功，定位方式为：x,使用的值为//td[2]/div/div[4]/a[2]:
2021-07-08 18:48:53,306 - BasePage - INFO - 点击元素成功
2021-07-08 18:48:56,308 - BasePage - INFO - 等待 3 秒
2021-07-08 18:48:56,360 - BasePage - INFO - 元素定位成功，定位方式为：x,使用的值为//div[4]/a:
2021-07-08 18:48:56,467 - BasePage - INFO - 点击元素成功
2021-07-08 18:48:59,467 - BasePage - INFO - 等待 3 秒
2021-07-08 18:49:00,607 - BasePage - INFO - 元素定位成功，定位方式为：s,使用的值为.goods__desc__name:
2021-07-08 18:49:03,650 - BasePage - INFO - 获取元素的值成功 3M 96号高效百洁布20片装
2021-07-08 18:49:08,831 - browser_engine - INFO - You had select Chrome browser.
2021-07-08 18:49:08,832 - browser_engine - INFO - The test server url is: http://mro.shop.d/
2021-07-08 18:49:11,034 - browser_engine - INFO - 打开浏览器为Chrome
2021-07-08 18:49:16,153 - browser_engine - INFO - 打开链接: http://mro.shop.d/
2021-07-08 18:49:17,266 - browser_engine - INFO - 浏览器全屏显示
2021-07-08 18:49:24,283 - BasePage - INFO - 元素定位成功，定位方式为：s,使用的值为.banner_list > .banner_title:
2021-07-08 18:49:29,345 - BasePage - INFO - 点击元素成功
2021-07-08 18:49:30,353 - BasePage - INFO - 等待 1 秒
2021-07-08 18:49:31,377 - BasePage - INFO - 元素定位成功，定位方式为：s,使用的值为.a-center:nth-child(2) > a:nth-child(2):
2021-07-08 18:49:31,602 - BasePage - INFO - 点击元素成功
2021-07-08 18:49:33,602 - BasePage - INFO - 等待 2 秒
