2021-07-08 18:12:59,517 - browser_engine - INFO - You had select Chrome browser.
2021-07-08 18:12:59,518 - browser_engine - INFO - The test server url is: http://mro.shop.d/
2021-07-08 18:13:01,939 - browser_engine - INFO - 打开浏览器为Chrome
2021-07-08 18:13:04,686 - browser_engine - INFO - 打开链接: http://mro.shop.d/
2021-07-08 18:13:05,802 - browser_engine - INFO - 浏览器全屏显示
2021-07-08 18:13:08,804 - BasePage - INFO - 等待 3 秒
2021-07-08 18:13:08,817 - BasePage - INFO - 元素定位成功，定位方式为：s,使用的值为.login:nth-child(2):
2021-07-08 18:13:09,313 - BasePage - INFO - 点击元素成功
2021-07-08 18:13:09,329 - BasePage - INFO - 元素定位成功，定位方式为：i,使用的值为user_name:
2021-07-08 18:13:09,441 - BasePage - INFO - 在输入框内输入 ' 17863962858 ' 
2021-07-08 18:13:09,451 - BasePage - INFO - 元素定位成功，定位方式为：i,使用的值为password:
2021-07-08 18:13:09,524 - BasePage - INFO - 在输入框内输入 ' qqqqqq1 ' 
2021-07-08 18:13:09,539 - BasePage - INFO - 元素定位成功，定位方式为：s,使用的值为.login-button:
2021-07-08 18:13:09,611 - BasePage - INFO - 点击元素成功
2021-07-08 18:13:11,886 - BasePage - INFO - 元素定位成功，定位方式为：s,使用的值为.header_left > a:nth-child(2):
2021-07-08 18:13:14,931 - BasePage - INFO - 获取元素的值成功 17863962858
2021-07-08 18:13:21,151 - browser_engine - INFO - You had select Chrome browser.
2021-07-08 18:13:21,151 - browser_engine - INFO - The test server url is: http://mro.shop.d/
2021-07-08 18:13:23,339 - browser_engine - INFO - 打开浏览器为Chrome
2021-07-08 18:13:26,209 - browser_engine - INFO - 打开链接: http://mro.shop.d/
2021-07-08 18:13:27,323 - browser_engine - INFO - 浏览器全屏显示
2021-07-08 18:13:32,709 - BasePage - INFO - 元素定位成功，定位方式为：s,使用的值为.banner_list > .banner_title:
2021-07-08 18:13:32,835 - BasePage - INFO - 点击元素成功
2021-07-08 18:13:33,841 - BasePage - INFO - 等待 1 秒
2021-07-08 18:13:37,487 - BasePage - INFO - 元素定位成功，定位方式为：s,使用的值为.a-center:nth-child(2) > a:nth-child(2):
2021-07-08 18:13:37,629 - BasePage - INFO - 点击元素成功
2021-07-08 18:13:39,629 - BasePage - INFO - 等待 2 秒
2021-07-08 18:13:41,652 - BasePage - INFO - 等待 2 秒
2021-07-08 18:13:42,679 - BasePage - INFO - 元素定位成功，定位方式为：x,使用的值为//span[3]/span:
2021-07-08 18:13:42,727 - BasePage - INFO - 点击元素成功
2021-07-08 18:13:44,728 - BasePage - INFO - 等待 2 秒
2021-07-08 18:13:44,740 - BasePage - INFO - 元素定位成功，定位方式为：x,使用的值为//li[5]/span/div/span[3]:
2021-07-08 18:13:44,787 - BasePage - INFO - 点击元素成功
2021-07-08 18:13:46,787 - BasePage - INFO - 等待 2 秒
2021-07-08 18:13:46,824 - BasePage - INFO - 元素定位成功，定位方式为：s,使用的值为.el-button--success:
2021-07-08 18:13:48,793 - BasePage - INFO - 点击元素成功
2021-07-08 18:13:51,050 - BasePage - INFO - 元素定位成功，定位方式为：i,使用的值为collectGood_21549:
2021-07-08 18:13:51,326 - BasePage - INFO - 点击元素成功
2021-07-08 18:13:51,334 - BasePage - INFO - 元素定位成功，定位方式为：i,使用的值为collectGood_21549:
2021-07-08 18:13:54,374 - BasePage - INFO - 获取元素的值成功 关注商品
2021-07-08 18:13:54,390 - BasePage - INFO - 元素定位成功，定位方式为：s,使用的值为.gid_24523:
2021-07-08 18:13:54,455 - BasePage - INFO - 点击元素成功
2021-07-08 18:13:57,455 - BasePage - INFO - 等待 3 秒
2021-07-08 18:13:59,511 - BasePage - INFO - 元素定位成功，定位方式为：x,使用的值为//td[2]/div/div[4]/a[2]:
2021-07-08 18:14:01,134 - BasePage - INFO - 点击元素成功
2021-07-08 18:14:04,134 - BasePage - INFO - 等待 3 秒
2021-07-08 18:14:04,186 - BasePage - INFO - 元素定位成功，定位方式为：x,使用的值为//div[4]/a:
2021-07-08 18:14:04,291 - BasePage - INFO - 点击元素成功
2021-07-08 18:14:07,292 - BasePage - INFO - 等待 3 秒
2021-07-08 18:14:08,400 - BasePage - INFO - 元素定位成功，定位方式为：s,使用的值为.goods__desc__name:
2021-07-08 18:14:11,445 - BasePage - INFO - 获取元素的值成功 3M 96号高效百洁布20片装
2021-07-08 18:14:16,641 - browser_engine - INFO - You had select Chrome browser.
2021-07-08 18:14:16,642 - browser_engine - INFO - The test server url is: http://mro.shop.d/
2021-07-08 18:14:18,780 - browser_engine - INFO - 打开浏览器为Chrome
2021-07-08 18:14:21,997 - browser_engine - INFO - 打开链接: http://mro.shop.d/
2021-07-08 18:14:23,117 - browser_engine - INFO - 浏览器全屏显示
2021-07-08 18:14:28,000 - BasePage - INFO - 元素定位成功，定位方式为：s,使用的值为.banner_list > .banner_title:
2021-07-08 18:14:28,102 - BasePage - INFO - 点击元素成功
2021-07-08 18:14:29,111 - BasePage - INFO - 等待 1 秒
2021-07-08 18:14:30,135 - BasePage - INFO - 元素定位成功，定位方式为：s,使用的值为.a-center:nth-child(2) > a:nth-child(2):
2021-07-08 18:14:30,252 - BasePage - INFO - 点击元素成功
2021-07-08 18:14:32,252 - BasePage - INFO - 等待 2 秒
2021-07-08 18:14:33,343 - BasePage - INFO - 元素定位成功，定位方式为：s,使用的值为.goods-collect-21549:
2021-07-08 18:14:33,414 - BasePage - INFO - 点击元素成功
2021-07-08 18:14:34,454 - BasePage - INFO - 元素定位成功，定位方式为：s,使用的值为.list-goods-body:nth-child(5) .setting:nth-child(1) > span:
2021-07-08 18:14:34,527 - BasePage - INFO - 点击元素成功
2021-07-08 18:14:36,527 - BasePage - INFO - 等待 2 秒
2021-07-08 18:14:36,564 - BasePage - INFO - 元素定位成功，定位方式为：x,使用的值为//button/i:
2021-07-08 18:14:36,649 - BasePage - INFO - 点击元素成功
2021-07-08 18:14:41,650 - BasePage - INFO - 等待 5 秒
2021-07-08 18:14:43,691 - BasePage - INFO - 元素定位成功，定位方式为：s,使用的值为.list-goods-body:nth-child(8) .setting:nth-child(1) > span:
2021-07-08 18:14:43,762 - BasePage - INFO - 点击元素成功
2021-07-08 18:14:45,762 - BasePage - INFO - 等待 2 秒
2021-07-08 18:14:45,790 - BasePage - INFO - 元素定位成功，定位方式为：x,使用的值为//button/i:
2021-07-08 18:14:45,865 - BasePage - INFO - 点击元素成功
2021-07-08 18:14:47,866 - BasePage - INFO - 等待 2 秒
2021-07-08 18:14:49,866 - BasePage - INFO - 等待 2 秒
2021-07-08 18:14:49,899 - BasePage - INFO - 元素定位成功，定位方式为：s,使用的值为.list-goods-body:nth-child(10) .setting:nth-child(1) > span:
2021-07-08 18:14:49,958 - BasePage - INFO - 点击元素成功
2021-07-08 18:14:51,959 - BasePage - INFO - 等待 2 秒
2021-07-08 18:14:51,987 - BasePage - INFO - 元素定位成功，定位方式为：x,使用的值为//button/i:
2021-07-08 18:14:52,067 - BasePage - INFO - 点击元素成功
2021-07-08 18:14:54,067 - BasePage - INFO - 等待 2 秒
2021-07-08 18:14:54,094 - BasePage - INFO - 元素定位成功，定位方式为：x,使用的值为//li[3]/span/div/span/span:
2021-07-08 18:14:56,171 - BasePage - INFO - 点击元素成功
2021-07-08 18:14:58,172 - BasePage - INFO - 等待 2 秒
2021-07-08 18:14:58,214 - BasePage - INFO - 元素定位成功，定位方式为：s,使用的值为.goods__desc__name:
2021-07-08 18:15:01,254 - BasePage - INFO - 获取元素的值成功 3M 4100白色抛光垫17英寸
2021-07-08 18:15:07,444 - browser_engine - INFO - You had select Chrome browser.
2021-07-08 18:15:07,445 - browser_engine - INFO - The test server url is: http://mro.shop.d/
2021-07-08 18:15:09,598 - browser_engine - INFO - 打开浏览器为Chrome
2021-07-08 18:15:12,361 - browser_engine - INFO - 打开链接: http://mro.shop.d/
2021-07-08 18:15:13,473 - browser_engine - INFO - 浏览器全屏显示
2021-07-08 18:15:13,483 - BasePage - INFO - 元素定位成功，定位方式为：s,使用的值为.banner_list > .banner_title:
2021-07-08 18:15:13,542 - BasePage - INFO - 点击元素成功
2021-07-08 18:15:14,548 - BasePage - INFO - 等待 1 秒
2021-07-08 18:15:15,571 - BasePage - INFO - 元素定位成功，定位方式为：s,使用的值为.a-center:nth-child(2) > a:nth-child(2):
2021-07-08 18:15:15,712 - BasePage - INFO - 点击元素成功
2021-07-08 18:15:17,713 - BasePage - INFO - 等待 2 秒
2021-07-08 18:15:18,765 - BasePage - INFO - 元素定位成功，定位方式为：s,使用的值为.brand-mores:
2021-07-08 18:15:18,830 - BasePage - INFO - 点击元素成功
2021-07-08 18:15:18,840 - BasePage - INFO - 元素定位成功，定位方式为：s,使用的值为.brand-more > span:
2021-07-08 18:15:18,897 - BasePage - INFO - 点击元素成功
2021-07-08 18:15:18,907 - BasePage - INFO - 元素定位成功，定位方式为：s,使用的值为.el-checkbox:nth-child(1) > .el-checkbox__label:
2021-07-08 18:15:18,959 - BasePage - INFO - 点击元素成功
2021-07-08 18:15:18,968 - BasePage - INFO - 元素定位成功，定位方式为：s,使用的值为.el-checkbox:nth-child(2) > .el-checkbox__label:
2021-07-08 18:15:19,021 - BasePage - INFO - 点击元素成功
2021-07-08 18:15:19,034 - BasePage - INFO - 元素定位成功，定位方式为：s,使用的值为.confirm-b:
2021-07-08 18:15:20,683 - BasePage - INFO - 点击元素成功
2021-07-08 18:15:20,693 - BasePage - INFO - 元素定位成功，定位方式为：s,使用的值为.price-price > span:
2021-07-08 18:15:22,294 - BasePage - INFO - 点击元素成功
2021-07-08 18:15:22,303 - BasePage - INFO - 元素定位成功，定位方式为：s,使用的值为.input:nth-child(1) > input:
2021-07-08 18:15:22,370 - BasePage - INFO - 点击元素成功
2021-07-08 18:15:22,383 - BasePage - INFO - 元素定位成功，定位方式为：s,使用的值为.input:nth-child(1) > input:
2021-07-08 18:15:22,426 - BasePage - INFO - 在输入框内输入 ' 1 ' 
2021-07-08 18:15:22,431 - BasePage - INFO - 元素定位成功，定位方式为：s,使用的值为.input:nth-child(1) > input:
2021-07-08 18:15:22,461 - BasePage - INFO - 点击元素成功
2021-07-08 18:15:22,470 - BasePage - INFO - 元素定位成功，定位方式为：s,使用的值为.input:nth-child(3) > input:
2021-07-08 18:15:22,527 - BasePage - INFO - 在输入框内输入 ' 5 ' 
2021-07-08 18:15:22,532 - BasePage - INFO - 元素定位成功，定位方式为：s,使用的值为.input:nth-child(1) > input:
2021-07-08 18:15:22,568 - BasePage - INFO - 点击元素成功
2021-07-08 18:15:22,578 - BasePage - INFO - 元素定位成功，定位方式为：s,使用的值为.price-btn:
2021-07-08 18:15:23,899 - BasePage - INFO - 点击元素成功
2021-07-08 18:15:23,909 - BasePage - INFO - 元素定位成功，定位方式为：i,使用的值为price-518460:
2021-07-08 18:15:26,955 - BasePage - INFO - 获取元素的值成功 ￥3.00
2021-07-08 18:15:26,970 - BasePage - INFO - 元素定位成功，定位方式为：i,使用的值为price-523487:
2021-07-08 18:15:29,993 - BasePage - INFO - 获取元素的值成功 ￥4.61
2021-07-08 18:15:30,000 - BasePage - INFO - 元素定位成功，定位方式为：i,使用的值为price-518460:
2021-07-08 18:15:33,031 - BasePage - INFO - 获取元素的值成功 ￥3.00
2021-07-08 18:15:33,050 - BasePage - INFO - 元素定位成功，定位方式为：i,使用的值为price-523487:
2021-07-08 18:15:36,077 - BasePage - INFO - 获取元素的值成功 ￥4.61
2021-07-08 18:15:36,095 - BasePage - INFO - 元素定位成功，定位方式为：s,使用的值为.icon-liebiao1:
2021-07-08 18:15:36,266 - BasePage - INFO - 点击元素成功
2021-07-08 18:15:36,295 - BasePage - INFO - 元素定位成功，定位方式为：s,使用的值为.icon-liebiao:
2021-07-08 18:15:36,358 - BasePage - INFO - 点击元素成功
2021-07-08 18:15:42,532 - browser_engine - INFO - You had select Chrome browser.
2021-07-08 18:15:42,533 - browser_engine - INFO - The test server url is: http://mro.shop.d/
2021-07-08 18:15:44,658 - browser_engine - INFO - 打开浏览器为Chrome
2021-07-08 18:15:47,509 - browser_engine - INFO - 打开链接: http://mro.shop.d/
2021-07-08 18:15:48,619 - browser_engine - INFO - 浏览器全屏显示
2021-07-08 18:15:56,058 - BasePage - INFO - 元素定位成功，定位方式为：s,使用的值为.banner_list > .banner_title:
2021-07-08 18:15:56,136 - BasePage - INFO - 点击元素成功
2021-07-08 18:15:57,345 - BasePage - INFO - 元素定位成功，定位方式为：s,使用的值为.a-center:nth-child(2) > a:nth-child(2):
2021-07-08 18:15:57,462 - BasePage - INFO - 点击元素成功
2021-07-08 18:15:59,480 - BasePage - INFO - 等待 2 秒
2021-07-08 18:16:00,533 - BasePage - INFO - 元素定位成功，定位方式为：x,使用的值为//div[4]/p[2]:
2021-07-08 18:16:04,117 - BasePage - INFO - 点击元素成功
2021-07-08 18:16:06,118 - BasePage - INFO - 等待 2 秒
2021-07-08 18:16:06,127 - BasePage - INFO - 元素定位成功，定位方式为：i,使用的值为collect:
2021-07-08 18:16:06,168 - BasePage - INFO - 点击元素成功
2021-07-08 18:16:10,169 - BasePage - INFO - 等待 4 秒
2021-07-08 18:16:10,203 - BasePage - INFO - 元素定位成功，定位方式为：s,使用的值为#collect > span:
2021-07-08 18:16:13,246 - BasePage - INFO - 获取元素的值成功 关注
2021-07-08 18:16:13,262 - BasePage - INFO - 元素定位成功，定位方式为：s,使用的值为.cart:
2021-07-08 18:16:13,316 - BasePage - INFO - 点击元素成功
2021-07-08 18:16:13,325 - BasePage - INFO - 元素定位成功，定位方式为：s,使用的值为.el-input--mini > .el-input__inner:
2021-07-08 18:16:13,369 - BasePage - INFO - 在输入框内输入 ' 2 ' 
2021-07-08 18:16:13,380 - BasePage - INFO - 元素定位成功，定位方式为：s,使用的值为.el-button--danger:
2021-07-08 18:16:13,430 - BasePage - INFO - 点击元素成功
2021-07-08 18:16:18,431 - BasePage - INFO - 等待 5 秒
2021-07-08 18:16:18,466 - BasePage - INFO - 元素定位成功，定位方式为：s,使用的值为.dispatching-main:nth-child(1) li:nth-child(1):
2021-07-08 18:16:18,523 - BasePage - INFO - 点击元素成功
2021-07-08 18:16:19,524 - BasePage - INFO - 等待 1 秒
2021-07-08 18:16:19,558 - BasePage - INFO - 元素定位成功，定位方式为：s,使用的值为.btn-sub:
2021-07-08 18:16:19,695 - BasePage - INFO - 点击元素成功
2021-07-08 18:16:24,696 - BasePage - INFO - 等待 5 秒
2021-07-08 18:16:24,711 - BasePage - INFO - 元素定位成功，定位方式为：s,使用的值为p:nth-child(1) > span:
2021-07-08 18:16:27,767 - BasePage - INFO - 获取元素的值成功 订单提交成功！
2021-07-08 18:16:32,923 - browser_engine - INFO - You had select Chrome browser.
2021-07-08 18:16:32,923 - browser_engine - INFO - The test server url is: http://mro.shop.d/
2021-07-08 18:16:35,068 - browser_engine - INFO - 打开浏览器为Chrome
2021-07-08 18:16:37,971 - browser_engine - INFO - 打开链接: http://mro.shop.d/
2021-07-08 18:16:39,084 - browser_engine - INFO - 浏览器全屏显示
2021-07-08 18:16:43,823 - BasePage - INFO - 元素定位成功，定位方式为：s,使用的值为.header_cartBox > span:nth-child(2):
2021-07-08 18:16:43,901 - BasePage - INFO - 点击元素成功
2021-07-08 18:16:44,129 - BasePage - INFO - 元素定位成功，定位方式为：s,使用的值为.go_payr > a:
2021-07-08 18:16:45,066 - BasePage - INFO - 点击元素成功
2021-07-08 18:16:47,066 - BasePage - INFO - 等待 2 秒
2021-07-08 18:16:47,105 - BasePage - INFO - 元素定位成功，定位方式为：s,使用的值为.table-title .el-checkbox__inner:
2021-07-08 18:16:47,183 - BasePage - INFO - 点击元素成功
2021-07-08 18:16:47,220 - BasePage - INFO - 元素定位成功，定位方式为：x,使用的值为//div/input:
2021-07-08 18:16:50,236 - BasePage - INFO - 获取元素的值成功 1
2021-07-08 18:16:50,268 - BasePage - INFO - 元素定位成功，定位方式为：x,使用的值为//span[2]/i:
2021-07-08 18:16:50,377 - BasePage - INFO - 点击元素成功
2021-07-08 18:16:50,387 - BasePage - INFO - 元素定位成功，定位方式为：x,使用的值为//div/input:
2021-07-08 18:16:53,398 - BasePage - INFO - 获取元素的值成功 2
2021-07-08 18:16:53,423 - BasePage - INFO - 元素定位成功，定位方式为：x,使用的值为//span/div/span:
2021-07-08 18:16:53,477 - BasePage - INFO - 点击元素成功
2021-07-08 18:16:53,482 - BasePage - INFO - 元素定位成功，定位方式为：x,使用的值为//div/input:
2021-07-08 18:16:56,494 - BasePage - INFO - 获取元素的值成功 1
2021-07-08 18:16:59,495 - BasePage - INFO - 等待 3 秒
2021-07-08 18:16:59,507 - BasePage - INFO - 元素定位成功，定位方式为：s,使用的值为.table-row:nth-child(1) > div:nth-child(2) .table-btn:nth-child(1):
2021-07-08 18:16:59,564 - BasePage - INFO - 点击元素成功
2021-07-08 18:16:59,576 - BasePage - INFO - 元素定位成功，定位方式为：s,使用的值为.el-dialog__footer:nth-child(3) .el-button--default:
2021-07-08 18:16:59,675 - BasePage - INFO - 点击元素成功
2021-07-08 18:17:01,677 - BasePage - INFO - 等待 2 秒
2021-07-08 18:17:01,707 - BasePage - INFO - 元素定位成功，定位方式为：s,使用的值为.table-row:nth-child(1) > div:nth-child(2) .table-btn:nth-child(2):
2021-07-08 18:17:01,766 - BasePage - INFO - 点击元素成功
2021-07-08 18:17:03,767 - BasePage - INFO - 等待 2 秒
2021-07-08 18:17:06,010 - BasePage - INFO - 元素定位成功，定位方式为：s,使用的值为.sectionC:
2021-07-08 18:17:06,116 - BasePage - INFO - 点击元素成功
2021-07-08 18:17:11,117 - BasePage - INFO - 等待 5 秒
2021-07-08 18:17:16,118 - BasePage - INFO - 等待 5 秒
2021-07-08 18:17:16,154 - BasePage - INFO - 元素定位成功，定位方式为：s,使用的值为.dispatching-main:nth-child(1) li:nth-child(1):
2021-07-08 18:17:16,236 - BasePage - INFO - 点击元素成功
2021-07-08 18:17:17,237 - BasePage - INFO - 等待 1 秒
2021-07-08 18:17:17,269 - BasePage - INFO - 元素定位成功，定位方式为：s,使用的值为.btn-sub:
2021-07-08 18:17:17,378 - BasePage - INFO - 点击元素成功
2021-07-08 18:17:22,380 - BasePage - INFO - 等待 5 秒
2021-07-08 18:17:22,411 - BasePage - INFO - 元素定位成功，定位方式为：s,使用的值为p:nth-child(1) > span:
2021-07-08 18:17:25,440 - BasePage - INFO - 获取元素的值成功 在线支付
2021-07-08 18:17:31,599 - browser_engine - INFO - You had select Chrome browser.
2021-07-08 18:17:31,600 - browser_engine - INFO - The test server url is: http://mro.shop.d/
2021-07-08 18:17:33,821 - browser_engine - INFO - 打开浏览器为Chrome
2021-07-08 18:17:36,737 - browser_engine - INFO - 打开链接: http://mro.shop.d/
2021-07-08 18:17:37,866 - browser_engine - INFO - 浏览器全屏显示
2021-07-08 18:17:43,061 - BasePage - INFO - 元素定位成功，定位方式为：s,使用的值为.banner_list > .banner_title:
2021-07-08 18:17:43,152 - BasePage - INFO - 点击元素成功
2021-07-08 18:17:44,384 - BasePage - INFO - 元素定位成功，定位方式为：s,使用的值为.a-center:nth-child(2) > a:nth-child(2):
2021-07-08 18:17:44,493 - BasePage - INFO - 点击元素成功
2021-07-08 18:17:46,514 - BasePage - INFO - 等待 2 秒
2021-07-08 18:17:47,590 - BasePage - INFO - 元素定位成功，定位方式为：x,使用的值为//li[5]/span/a/div/img:
2021-07-08 18:17:49,995 - BasePage - INFO - 点击元素成功
2021-07-08 18:17:51,997 - BasePage - INFO - 等待 2 秒
2021-07-08 18:17:52,012 - BasePage - INFO - 元素定位成功，定位方式为：s,使用的值为.buy:
2021-07-08 18:17:52,072 - BasePage - INFO - 点击元素成功
2021-07-08 18:17:54,074 - BasePage - INFO - 等待 2 秒
2021-07-08 18:17:54,084 - BasePage - INFO - 元素定位成功，定位方式为：s,使用的值为.dispatching-l:nth-child(1):
2021-07-08 18:17:54,127 - BasePage - INFO - 点击元素成功
2021-07-08 18:17:56,127 - BasePage - INFO - 等待 2 秒
2021-07-08 18:17:56,159 - BasePage - INFO - 元素定位成功，定位方式为：s,使用的值为.dispatching-l:nth-child(1) li:nth-child(1):
2021-07-08 18:17:56,231 - BasePage - INFO - 点击元素成功
2021-07-08 18:17:56,241 - BasePage - INFO - 元素定位成功，定位方式为：s,使用的值为.el-textarea__inner:
2021-07-08 18:17:56,374 - BasePage - INFO - 在输入框内输入 ' 测试订单留言 ' 
2021-07-08 18:17:57,376 - BasePage - INFO - 等待 1 秒
2021-07-08 18:17:57,423 - BasePage - INFO - 元素定位成功，定位方式为：s,使用的值为.btn-sub:
2021-07-08 18:17:57,522 - BasePage - INFO - 点击元素成功
2021-07-08 18:18:02,522 - BasePage - INFO - 等待 5 秒
2021-07-08 18:18:02,560 - BasePage - INFO - 元素定位成功，定位方式为：s,使用的值为p:nth-child(1) > span:
2021-07-08 18:18:05,597 - BasePage - INFO - 获取元素的值成功 订单提交成功！
2021-07-08 18:18:11,749 - browser_engine - INFO - You had select Chrome browser.
2021-07-08 18:18:11,750 - browser_engine - INFO - The test server url is: http://mro.shop.d/
2021-07-08 18:18:13,938 - browser_engine - INFO - 打开浏览器为Chrome
2021-07-08 18:18:16,997 - browser_engine - INFO - 打开链接: http://mro.shop.d/
2021-07-08 18:18:18,127 - browser_engine - INFO - 浏览器全屏显示
2021-07-08 18:18:23,521 - BasePage - INFO - 元素定位成功，定位方式为：s,使用的值为.banner_list > .banner_title:
2021-07-08 18:18:23,641 - BasePage - INFO - 点击元素成功
2021-07-08 18:18:24,944 - BasePage - INFO - 元素定位成功，定位方式为：s,使用的值为.a-center:nth-child(2) > a:nth-child(2):
2021-07-08 18:18:25,076 - BasePage - INFO - 点击元素成功
2021-07-08 18:18:27,096 - BasePage - INFO - 等待 2 秒
2021-07-08 18:18:28,150 - BasePage - INFO - 元素定位成功，定位方式为：x,使用的值为//li[5]/span/a/div/img:
2021-07-08 18:18:37,138 - BasePage - INFO - 点击元素成功
2021-07-08 18:18:39,139 - BasePage - INFO - 等待 2 秒
2021-07-08 18:18:39,180 - BasePage - INFO - 元素定位成功，定位方式为：s,使用的值为.buy:
2021-07-08 18:18:39,339 - BasePage - INFO - 点击元素成功
2021-07-08 18:18:41,340 - BasePage - INFO - 等待 2 秒
2021-07-08 18:18:57,804 - BasePage - INFO - 元素定位成功，定位方式为：s,使用的值为.dispatching-l:nth-child(2):
2021-07-08 18:18:58,538 - BasePage - INFO - 点击元素成功
2021-07-08 18:18:58,539 - BasePage - INFO - 等待 2 秒
2021-07-08 18:18:58,572 - BasePage - INFO - 元素定位成功，定位方式为：s,使用的值为.el-cascader .el-input__inner:
2021-07-08 18:18:59,323 - BasePage - INFO - 点击元素成功
2021-07-08 18:19:01,324 - BasePage - INFO - 等待 2 秒
2021-07-08 18:19:01,358 - BasePage - INFO - 元素定位成功，定位方式为：x,使用的值为//div[9]/div/div/div/ul/li/span:
2021-07-08 18:19:01,428 - BasePage - INFO - 点击元素成功
2021-07-08 18:19:01,437 - BasePage - INFO - 元素定位成功，定位方式为：x,使用的值为//div[2]/div/ul/li/span:
2021-07-08 18:19:01,478 - BasePage - INFO - 点击元素成功
2021-07-08 18:19:01,487 - BasePage - INFO - 元素定位成功，定位方式为：x,使用的值为//div[3]/div/ul/li/span:
2021-07-08 18:19:01,564 - BasePage - INFO - 点击元素成功
2021-07-08 18:19:01,573 - BasePage - INFO - 元素定位成功，定位方式为：s,使用的值为.el-form-item:nth-child(2) .el-input__inner:
2021-07-08 18:19:01,630 - BasePage - INFO - 点击元素成功
2021-07-08 18:19:02,631 - BasePage - INFO - 等待 1 秒
2021-07-08 18:19:02,640 - BasePage - INFO - 元素定位成功，定位方式为：x,使用的值为//div[10]/div/div/ul/li:
2021-07-08 18:19:02,692 - BasePage - INFO - 点击元素成功
2021-07-08 18:19:04,693 - BasePage - INFO - 等待 2 秒
2021-07-08 18:19:04,724 - BasePage - INFO - 元素定位成功，定位方式为：s,使用的值为.logistic-button:
2021-07-08 18:19:04,798 - BasePage - INFO - 点击元素成功
2021-07-08 18:19:06,800 - BasePage - INFO - 等待 2 秒
2021-07-08 18:19:06,821 - BasePage - INFO - 元素定位成功，定位方式为：s,使用的值为.replace > li:nth-child(1):
2021-07-08 18:19:06,906 - BasePage - INFO - 点击元素成功
2021-07-08 18:19:06,923 - BasePage - INFO - 元素定位成功，定位方式为：s,使用的值为.el-table__row:nth-child(1) a:nth-child(1):
2021-07-08 18:19:06,975 - BasePage - INFO - 点击元素成功
2021-07-08 18:19:08,976 - BasePage - INFO - 等待 2 秒
2021-07-08 18:19:09,008 - BasePage - INFO - 元素定位成功，定位方式为：s,使用的值为.btn-sub:
2021-07-08 18:19:09,092 - BasePage - INFO - 点击元素成功
2021-07-08 18:19:14,093 - BasePage - INFO - 等待 5 秒
2021-07-08 18:19:14,128 - BasePage - INFO - 元素定位成功，定位方式为：s,使用的值为p:nth-child(1) > span:
2021-07-08 18:19:17,172 - BasePage - INFO - 获取元素的值成功 订单提交成功！
